Month,gun control: (Worldwide)
2004-01,27
2004-02,34
2004-03,35
2004-04,39
2004-05,28
2004-06,13
2004-07,10
2004-08,8
2004-09,25
2004-10,39
2004-11,34
2004-12,24
2005-01,17
2005-02,21
2005-03,24
2005-04,26
2005-05,20
2005-06,8
2005-07,7
2005-08,5
2005-09,12
2005-10,19
2005-11,22
2005-12,15
2006-01,13
2006-02,16
2006-03,17
2006-04,16
2006-05,14
2006-06,6
2006-07,4
2006-08,5
2006-09,8
2006-10,14
2006-11,15
2006-12,10
2007-01,10
2007-02,11
2007-03,12
2007-04,29
2007-05,19
2007-06,7
2007-07,5
2007-08,4
2007-09,8
2007-10,13
2007-11,14
2007-12,13
2008-01,12
2008-02,14
2008-03,14
2008-04,16
2008-05,11
2008-06,8
2008-07,5
2008-08,5
2008-09,11
2008-10,18
2008-11,21
2008-12,12
2009-01,9
2009-02,13
2009-03,13
2009-04,16
2009-05,11
2009-06,6
2009-07,6
2009-08,5
2009-09,8
2009-10,10
2009-11,11
2009-12,8
2010-01,7
2010-02,8
2010-03,10
2010-04,10
2010-05,8
2010-06,5
2010-07,4
2010-08,3
2010-09,5
2010-10,7
2010-11,7
2010-12,5
2011-01,11
2011-02,8
2011-03,7
2011-04,7
2011-05,6
2011-06,4
2011-07,4
2011-08,3
2011-09,4
2011-10,6
2011-11,6
2011-12,5
2012-01,5
2012-02,6
2012-03,6
2012-04,7
2012-05,5
2012-06,3
2012-07,17
2012-08,8
2012-09,8
2012-10,10
2012-11,13
2012-12,71
2013-01,100
2013-02,50
2013-03,38
2013-04,64
2013-05,24
2013-06,11
2013-07,8
2013-08,7
2013-09,13
2013-10,13
2013-11,13
2013-12,12
2014-01,11
2014-02,12
2014-03,12
2014-04,12
2014-05,11
2014-06,9
2014-07,6
2014-08,6
2014-09,8
2014-10,10
2014-11,11
2014-12,8
2015-01,8
2015-02,9
2015-03,9
2015-04,10
2015-05,8
2015-06,12
2015-07,9
2015-08,11
2015-09,10
2015-10,36
2015-11,17
2015-12,33
2016-01,43
2016-02,16
2016-03,14
2016-04,12
2016-05,10
2016-06,42
2016-07,15
2016-08,8
2016-09,11
2016-10,14
2016-11,15
2016-12,8
2017-01,8
2017-02,9
2017-03,7
2017-04,7
2017-05,6
2017-06,5
2017-07,3
2017-08,3
2017-09,4
2017-10,39
