Month,gun: (Worldwide)
2004-01,65
2004-02,64
2004-03,62
2004-04,63
2004-05,60
2004-06,58
2004-07,57
2004-08,57
2004-09,60
2004-10,62
2004-11,59
2004-12,60
2005-01,59
2005-02,60
2005-03,59
2005-04,59
2005-05,56
2005-06,50
2005-07,54
2005-08,53
2005-09,53
2005-10,57
2005-11,72
2005-12,70
2006-01,71
2006-02,65
2006-03,61
2006-04,59
2006-05,56
2006-06,53
2006-07,54
2006-08,55
2006-09,52
2006-10,54
2006-11,53
2006-12,56
2007-01,52
2007-02,51
2007-03,48
2007-04,57
2007-05,50
2007-06,47
2007-07,49
2007-08,48
2007-09,47
2007-10,49
2007-11,51
2007-12,56
2008-01,54
2008-02,54
2008-03,54
2008-04,53
2008-05,50
2008-06,50
2008-07,50
2008-08,50
2008-09,48
2008-10,53
2008-11,62
2008-12,63
2009-01,58
2009-02,57
2009-03,58
2009-04,57
2009-05,52
2009-06,49
2009-07,51
2009-08,53
2009-09,51
2009-10,53
2009-11,55
2009-12,57
2010-01,53
2010-02,53
2010-03,53
2010-04,52
2010-05,51
2010-06,49
2010-07,52
2010-08,53
2010-09,50
2010-10,52
2010-11,58
2010-12,61
2011-01,63
2011-02,58
2011-03,56
2011-04,57
2011-05,55
2011-06,53
2011-07,56
2011-08,58
2011-09,55
2011-10,57
2011-11,62
2011-12,67
2012-01,63
2012-02,64
2012-03,62
2012-04,60
2012-05,55
2012-06,56
2012-07,63
2012-08,61
2012-09,59
2012-10,59
2012-11,65
2012-12,97
2013-01,100
2013-02,79
2013-03,72
2013-04,71
2013-05,60
2013-06,55
2013-07,57
2013-08,59
2013-09,55
2013-10,55
2013-11,58
2013-12,61
2014-01,59
2014-02,58
2014-03,58
2014-04,56
2014-05,53
2014-06,54
2014-07,57
2014-08,58
2014-09,54
2014-10,57
2014-11,60
2014-12,65
2015-01,61
2015-02,60
2015-03,58
2015-04,57
2015-05,55
2015-06,59
2015-07,61
2015-08,60
2015-09,56
2015-10,67
2015-11,67
2015-12,80
2016-01,71
2016-02,62
2016-03,60
2016-04,57
2016-05,57
2016-06,68
2016-07,63
2016-08,56
2016-09,58
2016-10,61
2016-11,66
2016-12,66
2017-01,62
2017-02,61
2017-03,58
2017-04,57
2017-05,55
2017-06,57
2017-07,55
2017-08,54
2017-09,52
2017-10,69
