Month,mass shooting: (Worldwide)
2004-01,0
2004-02,0
2004-03,1
2004-04,1
2004-05,1
2004-06,1
2004-07,0
2004-08,0
2004-09,0
2004-10,0
2004-11,0
2004-12,0
2005-01,0
2005-02,0
2005-03,1
2005-04,0
2005-05,0
2005-06,0
2005-07,0
2005-08,0
2005-09,1
2005-10,0
2005-11,0
2005-12,0
2006-01,0
2006-02,0
2006-03,0
2006-04,0
2006-05,0
2006-06,0
2006-07,1
2006-08,0
2006-09,0
2006-10,1
2006-11,0
2006-12,0
2007-01,0
2007-02,0
2007-03,0
2007-04,4
2007-05,0
2007-06,0
2007-07,0
2007-08,0
2007-09,0
2007-10,1
2007-11,1
2007-12,1
2008-01,0
2008-02,1
2008-03,0
2008-04,1
2008-05,0
2008-06,0
2008-07,0
2008-08,0
2008-09,0
2008-10,0
2008-11,0
2008-12,0
2009-01,0
2009-02,0
2009-03,1
2009-04,1
2009-05,0
2009-06,0
2009-07,0
2009-08,0
2009-09,0
2009-10,1
2009-11,3
2009-12,0
2010-01,1
2010-02,1
2010-03,1
2010-04,1
2010-05,1
2010-06,1
2010-07,0
2010-08,1
2010-09,1
2010-10,1
2010-11,0
2010-12,0
2011-01,2
2011-02,1
2011-03,1
2011-04,1
2011-05,1
2011-06,1
2011-07,1
2011-08,1
2011-09,1
2011-10,1
2011-11,1
2011-12,1
2012-01,1
2012-02,1
2012-03,1
2012-04,1
2012-05,1
2012-06,1
2012-07,14
2012-08,6
2012-09,1
2012-10,2
2012-11,1
2012-12,21
2013-01,6
2013-02,3
2013-03,2
2013-04,3
2013-05,2
2013-06,2
2013-07,2
2013-08,2
2013-09,6
2013-10,2
2013-11,2
2013-12,2
2014-01,2
2014-02,1
2014-03,1
2014-04,2
2014-05,6
2014-06,3
2014-07,2
2014-08,2
2014-09,3
2014-10,2
2014-11,2
2014-12,2
2015-01,2
2015-02,2
2015-03,1
2015-04,1
2015-05,1
2015-06,5
2015-07,3
2015-08,3
2015-09,2
2015-10,20
2015-11,5
2015-12,69
2016-01,5
2016-02,6
2016-03,5
2016-04,5
2016-05,3
2016-06,77
2016-07,12
2016-08,3
2016-09,5
2016-10,3
2016-11,4
2016-12,3
2017-01,6
2017-02,4
2017-03,3
2017-04,4
2017-05,3
2017-06,5
2017-07,2
2017-08,2
2017-09,3
2017-10,100
